reporte
…
La columna InicioVisitaPlanificado y FinVisitaPlanificado contienen los mismos valores por lo que las unificamos en una nueva columna.

Formatear correctamente las variables

Renombrar las columnas por nombres intuitivos.

Con estos cambios realizados pasamos a modificaciones y arreglos necesarios para un análisis correcto de los datos.

Eliminación de filas duplicadas.

Arreglo de valores faltantes en coordenadas.

El dato de coordenadas en algunas filas estaba vacio o indicaba “0”. En algunos de estos casos pudimos rellenar estas coordenadas con datos existentes del domicilio (21 filas). En caso de que esto no sea posible las filas fueron eliminadas (19 filas) y no serán tomadas en cuenta para el análisis.

# A tibble: 42 × 14
   id_orden cliente localidad   direccion latitud longitud bultos unidades  peso
      <dbl> <fct>   <chr>       <chr>       <dbl>    <dbl>  <dbl>    <dbl> <dbl>
 1   163957 20      CAPITAL FE… DR ENRIQ…       0        0   2           2  13  
 2   167030 70      CAPITAL     JOSE HER…      NA       NA   2.44       55  10.8
 3   173085 20      GENERAL PA… CTRO COM…       0        0   4           4   0  
 4   176714 20      CAPITAL FE… AV. R. S…      NA       NA   5           5  39  
 5   176717 20      CAPITAL FE… AV. CORR…      NA       NA   2           2  19.5
 6   176731 70      CAPITAL     VEDIA 36…      NA       NA   5.5        18  50.2
 7   177884 20      CAPITAL FE… LARREA 1…      NA       NA   3           3  19.5
 8   177934 20      CAPITAL FE… AV CORRI…      NA       NA  12          12  12  
 9   177988 20      CAPITAL FE… CUBA 291…      NA       NA   5           5   0  
10   178012 70      CAPITAL     AREVALO …      NA       NA   2           2  10  
# ℹ 32 more rows
# ℹ 5 more variables: inicio_horario <chr>, fin_horario <chr>,
#   visita_planificada <dttm>, inicio_visita <dttm>, fin_visita <dttm>

# A tibble: 39 × 2
   id_orden count
      <dbl> <int>
 1   163957     2
 2   167030     1
 3   173085     9
 4   176714     2
 5   176717     1
 6   176731     1
 7   177884     3
 8   177934     2
 9   177988     2
10   178012    10
# ℹ 29 more rows

# A tibble: 21 × 4
   id_orden count na_count count_diff
      <dbl> <int>    <int>      <int>
 1   163957     2        1          1
 2   173085     9        1          8
 3   176714     2        1          1
 4   177884     3        1          2
 5   177934     2        1          1
 6   177988     2        1          1
 7   178012    10        1          9
 8   179363     2        1          1
 9   179364     2        1          1
10   180498     2        1          1
# ℹ 11 more rows
…
